project/simulation/qsim/cronometro.msim.vcd
$comment
	File created using the following command:
		vcd file cronometro.msim.vcd -direction
$end
$date
	Tue Jun 15 16:44:52 2021
$end
$version
	ModelSim Version 10.5b
$end
$timescale
	1ps
$end

$scope module pcounter4_vhd_vec_tst $end
$var wire 1 ! clk $end
$var wire 1 " enable $end
$var wire 1 # mainEn $end
$var wire 1 $ mode $end
$var wire 1 % Q [3] $end
$var wire 1 & Q [2] $end
$var wire 1 ' Q [1] $end
$var wire 1 ( Q [0] $end
$var wire 1 ) reset $end
$var wire 1 * TC $end

$scope module i1 $end
$var wire 1 + gnd $end
$var wire 1 , vcc $end
$var wire 1 - unknown $end
$var wire 1 . devoe $end
$var wire 1 / devclrn $end
$var wire 1 0 devpor $end
$var wire 1 1 ww_devoe $end
$var wire 1 2 ww_devclrn $end
$var wire 1 3 ww_devpor $end
$var wire 1 4 ww_clk $end
$var wire 1 5 ww_enable $end
$var wire 1 6 ww_mainEn $end
$var wire 1 7 ww_reset $end
$var wire 1 8 ww_mode $end
$var wire 1 9 ww_TC $end
$var wire 1 : ww_Q [3] $end
$var wire 1 ; ww_Q [2] $end
$var wire 1 < ww_Q [1] $end
$var wire 1 = ww_Q [0] $end
$var wire 1 > \TC~output_o\ $end
$var wire 1 ? \Q[0]~output_o\ $end
$var wire 1 @ \Q[1]~output_o\ $end
$var wire 1 A \Q[2]~output_o\ $end
$var wire 1 B \Q[3]~output_o\ $end
$var wire 1 C \clk~input_o\ $end
$var wire 1 D \enable~input_o\ $end
$var wire 1 E \mainEn~input_o\ $end
$var wire 1 F \TC~0_combout\ $end
$var wire 1 G \mode~input_o\ $end
$var wire 1 H \reset~input_o\ $end
$var wire 1 I \s_count~0_combout\ $end
$var wire 1 J \TC~4_combout\ $end
$var wire 1 K \Add0~1_cout\ $end
$var wire 1 L \Add0~2_combout\ $end
$var wire 1 M \Add0~3\ $end
$var wire 1 N \Add0~4_combout\ $end
$var wire 1 O \s_count~3_combout\ $end
$var wire 1 P \Add0~5\ $end
$var wire 1 Q \Add0~6_combout\ $end
$var wire 1 R \s_count~4_combout\ $end
$var wire 1 S \TC~1_combout\ $end
$var wire 1 T \s_count~1_combout\ $end
$var wire 1 U \s_count~2_combout\ $end
$var wire 1 V \TC~2_combout\ $end
$var wire 1 W \TC~3_combout\ $end
$var wire 1 X \TC~reg0_q\ $end
$var wire 1 Y s_count [3] $end
$var wire 1 Z s_count [2] $end
$var wire 1 [ s_count [1] $end
$var wire 1 \ s_count [0] $end
$upscope $end
$upscope $end
$enddefinitions $end
#0
$dumpvars
0!
1"
1#
0$
0)
0*
0+
1,
x-
1.
1/
10
11
12
13
04
15
16
07
08
09
0>
0?
0@
0A
0B
0C
1D
1E
1F
0G
0H
1I
1J
0K
0L
1M
0N
0O
0P
0Q
0R
0S
1T
0U
1V
0W
0X
0:
0;
0<
0=
0Y
0Z
0[
0\
0%
0&
0'
0(
$end
#15000
1!
14
1C
1\
0I
1K
1L
1?
1U
1=
1(
#30000
0!
04
0C
#45000
1!
14
1C
0\
1[
0L
0M
1I
0K
1L
1M
1N
0U
1@
0?
1O
0N
1U
1<
0=
0(
1'
0O
#60000
0!
04
0C
#75000
1!
14
1C
1\
0I
1K
0L
0M
1?
1N
0U
1=
1(
1O
#90000
0!
04
0C
#105000
1!
14
1C
0\
1Z
0[
1L
1M
0N
1P
1I
0K
0L
1Q
0O
1N
0P
1U
0@
1A
0?
0Q
1O
1R
0U
0<
1;
0=
0(
0'
1&
0R
#120000
0!
04
0C
#135000
1!
14
1C
1\
0I
1K
1L
1?
1U
1=
1(
#150000
0!
04
0C
#165000
1!
14
1C
0\
1[
0L
0M
1I
0K
1L
1M
0N
1P
0U
1@
0?
1Q
0O
1N
0P
1U
1<
0=
0(
1'
0Q
1O
1R
0R
#180000
0!
04
0C
#195000
1!
14
1C
1\
0I
1K
0L
0M
1?
0N
1P
0U
1=
1(
1Q
0O
1R
#210000
0!
04
0C
#225000
1!
14
1C
0\
0Z
1Y
0[
1L
1M
0Q
1N
0P
1I
0K
0L
1Q
1O
0R
0N
1U
0@
1B
0A
0?
0O
1R
0U
0<
1:
0;
0=
0(
0'
0&
1%
#240000
0!
04
0C
#255000
1!
14
1C
1\
0I
1K
1S
0T
0V
1L
1?
0R
1W
1=
1(
#270000
0!
04
0C
#285000
1!
14
1C
0\
0Y
1X
0Q
1I
0K
0S
1T
1V
0L
1>
0B
0?
0W
19
0:
0=
1*
0(
0%
#300000
0!
04
0C
#315000
1!
14
1C
1\
0X
0I
1K
1L
0>
1?
1U
09
1=
0*
1(
#330000
0!
04
0C
#345000
1!
14
1C
0\
1[
0L
0M
1I
0K
1L
1M
1N
0U
1@
0?
1O
0N
1U
1<
0=
0(
1'
0O
#350000
0"
05
0D
0F
0J
#360000
0!
04
0C
#375000
1!
14
1C
#390000
0!
04
0C
#400000
1"
15
1D
1F
1J
#405000
1!
14
1C
1\
0I
1K
0L
0M
1?
1N
0U
1=
1(
1O
#410000
1$
18
1G
1L
0N
1P
1Q
1R
0Q
0O
1U
0R
#420000
0!
04
0C
#435000
1!
14
1C
0\
1I
0K
1S
0L
0?
0U
0=
0(
#450000
0!
04
0C
#465000
1!
14
1C
1\
0[
1L
1M
0T
0V
0I
1K
0S
1T
1V
0L
0M
1R
1W
1N
0P
0@
1?
1Q
0N
1P
0R
0W
1O
0<
1=
1(
0'
0Q
0O
1R
0R
#480000
0!
04
0C
#495000
1!
14
1C
0\
1I
0K
1S
0T
0V
1L
1M
0?
1N
0P
1R
1W
0=
0(
1Q
#510000
0!
04
0C
#525000
1!
14
1C
1\
1Y
1X
0Q
0I
1K
0S
1T
1V
0L
0M
1>
1B
1?
0N
1P
0R
0W
1O
19
1:
1=
1*
1(
1%
1Q
0O
1R
#540000
0!
04
0C
#555000
1!
14
1C
0\
0X
1I
0K
1L
1M
0>
0?
1N
0P
1U
09
0=
0*
0(
0Q
1O
0R
#570000
0!
04
0C
#585000
1!
14
1C
1\
1Z
0Y
1[
0L
0M
1Q
0N
1P
0I
1K
1L
0Q
0O
1R
1N
0U
1@
0B
1A
1?
1O
0R
1U
1<
0:
1;
1=
1(
1'
1&
0%
#600000
0!
04
0C
#615000
1!
14
1C
0\
1I
0K
1S
0L
0?
0U
0=
0(
#630000
0!
04
0C
#645000
1!
14
1C
1\
0[
1L
1M
0I
1K
0S
0L
0M
0N
1U
0@
1?
0O
1N
0U
0<
1=
1(
0'
1O
#660000
0!
04
0C
#675000
1!
14
1C
0\
1I
0K
1S
1L
1M
0?
0N
1U
0=
0(
0O
#690000
0!
04
0C
#705000
1!
14
1C
1\
0Z
1[
0L
0M
1N
0P
0I
1K
0S
1L
1Q
1O
0N
1P
0U
1@
0A
1?
0Q
0O
1R
1U
1<
0;
1=
1(
1'
0&
0R
#720000
0!
04
0C
#735000
1!
14
1C
0\
1I
0K
1S
0L
0?
0U
0=
0(
#750000
0!
04
0C
#765000
1!
14
1C
1\
0[
1L
1M
0T
0V
0I
1K
0S
1T
1V
0L
0M
1R
1W
1N
0P
0@
1?
1Q
0N
1P
0R
0W
1O
0<
1=
1(
0'
0Q
0O
1R
0R
#780000
0!
0$
04
08
0G
0C
1L
1M
1N
0P
1Q
1R
0Q
1O
0N
1U
0O
0R
#790000
1)
17
1H
0T
0U
#795000
1!
14
1C
0\
0K
0L
0?
0=
0(
#810000
0!
04
0C
#820000
0)
07
0H
1I
1T
#825000
1!
14
1C
1\
0I
1K
1L
1?
1U
1=
1(
#840000
0!
04
0C
#855000
1!
14
1C
0\
1[
0L
0M
1I
0K
1L
1M
1N
0U
1@
0?
1O
0N
1U
1<
0=
0(
1'
0O
#870000
0!
04
0C
#885000
1!
14
1C
1\
0I
1K
0L
0M
1?
1N
0U
1=
1(
1O
#900000
0!
1)
04
17
1H
0C
0T
0O
#915000
1!
14
1C
0\
0[
1L
1M
0K
0L
0N
0@
0?
0<
0=
0(
0'
#930000
0!
04
0C
#940000
0)
07
0H
1I
1T
#945000
1!
14
1C
1\
0I
1K
1L
1?
1U
1=
1(
#960000
0!
0#
04
06
0E
0C
0F
0J
#975000
1!
14
1C
#990000
0!
04
0C
