project/simulation/qsim/cronometro.msim.vcd
$comment
	File created using the following command:
		vcd file cronometro.msim.vcd -direction
$end
$date
	Sat Jun 12 17:18:33 2021
$end
$version
	ModelSim Version 10.5b
$end
$timescale
	1ps
$end

$scope module bin7segdecoder_vhd_vec_tst $end
$var wire 1 ! binInput [3] $end
$var wire 1 " binInput [2] $end
$var wire 1 # binInput [1] $end
$var wire 1 $ binInput [0] $end
$var wire 1 % decOut_n [6] $end
$var wire 1 & decOut_n [5] $end
$var wire 1 ' decOut_n [4] $end
$var wire 1 ( decOut_n [3] $end
$var wire 1 ) decOut_n [2] $end
$var wire 1 * decOut_n [1] $end
$var wire 1 + decOut_n [0] $end

$scope module i1 $end
$var wire 1 , gnd $end
$var wire 1 - vcc $end
$var wire 1 . unknown $end
$var wire 1 / devoe $end
$var wire 1 0 devclrn $end
$var wire 1 1 devpor $end
$var wire 1 2 ww_devoe $end
$var wire 1 3 ww_devclrn $end
$var wire 1 4 ww_devpor $end
$var wire 1 5 ww_binInput [3] $end
$var wire 1 6 ww_binInput [2] $end
$var wire 1 7 ww_binInput [1] $end
$var wire 1 8 ww_binInput [0] $end
$var wire 1 9 ww_decOut_n [6] $end
$var wire 1 : ww_decOut_n [5] $end
$var wire 1 ; ww_decOut_n [4] $end
$var wire 1 < ww_decOut_n [3] $end
$var wire 1 = ww_decOut_n [2] $end
$var wire 1 > ww_decOut_n [1] $end
$var wire 1 ? ww_decOut_n [0] $end
$var wire 1 @ \decOut_n[0]~output_o\ $end
$var wire 1 A \decOut_n[1]~output_o\ $end
$var wire 1 B \decOut_n[2]~output_o\ $end
$var wire 1 C \decOut_n[3]~output_o\ $end
$var wire 1 D \decOut_n[4]~output_o\ $end
$var wire 1 E \decOut_n[5]~output_o\ $end
$var wire 1 F \decOut_n[6]~output_o\ $end
$var wire 1 G \binInput[3]~input_o\ $end
$var wire 1 H \binInput[1]~input_o\ $end
$var wire 1 I \binInput[0]~input_o\ $end
$var wire 1 J \binInput[2]~input_o\ $end
$var wire 1 K \decOut_n~0_combout\ $end
$var wire 1 L \decOut_n~1_combout\ $end
$var wire 1 M \decOut_n~2_combout\ $end
$var wire 1 N \decOut_n~3_combout\ $end
$var wire 1 O \decOut_n~4_combout\ $end
$var wire 1 P \decOut_n~5_combout\ $end
$var wire 1 Q \decOut_n~6_combout\ $end
$upscope $end
$upscope $end
$enddefinitions $end
#0
$dumpvars
0,
1-
x.
1/
10
11
12
13
14
1@
0A
0B
1C
1D
1E
1F
0G
0H
1I
0J
1K
0L
0M
1N
1O
1P
1Q
0!
0"
0#
1$
05
06
07
18
19
1:
1;
1<
0=
0>
1?
1%
1&
1'
1(
0)
0*
1+
$end
#40000
1#
17
1H
0K
0N
0Q
0F
0C
0@
09
0<
0?
0+
0(
0%
#80000
0$
08
0I
1M
0O
0D
1B
0;
1=
1)
0'
#120000
0#
1"
07
16
1J
0H
1K
0M
1N
1O
0P
0E
1D
1C
0B
1@
0:
1;
1<
0=
1?
1+
0)
1(
1'
0&
#170000
1$
18
1I
0K
1L
0N
0C
1A
0@
0<
1>
0?
0+
1*
0(
#220000
0$
1#
08
17
1H
0I
0O
0D
0;
0'
#260000
1$
18
1I
0L
1N
1O
1P
1Q
1F
1E
1D
1C
0A
19
1:
1;
1<
0>
0*
1(
1'
1&
1%
#310000
0$
0#
0"
1!
08
07
06
15
1G
0J
0H
0I
0N
0O
0P
0Q
0F
0E
0D
0C
09
0:
0;
0<
0(
0'
0&
0%
#360000
1$
18
1I
1O
1D
1;
1'
#410000
0$
1#
08
17
1H
0I
1N
0O
0D
1C
0;
1<
1(
0'
#460000
1$
18
1I
1K
1L
0N
0C
1A
1@
0<
1>
1?
1+
1*
0(
#500000
0$
0#
1"
08
07
16
1J
0H
0I
0K
1M
1Q
1F
1B
0@
19
1=
0?
0+
1)
1%
#550000
1$
18
1I
1K
0L
0M
1P
0Q
0F
1E
0B
0A
1@
09
1:
0=
0>
1?
1+
0*
0)
1&
0%
#600000
0$
1#
08
17
1H
0I
0K
1L
1M
0P
0E
1B
1A
0@
0:
1=
1>
0?
0+
1*
1)
0&
#640000
1$
18
1I
1N
1C
1<
1(
#690000
0$
0#
0"
0!
08
07
06
05
0G
0J
0H
0I
0L
0M
0N
1Q
1F
0C
0B
0A
19
0<
0=
0>
0*
0)
0(
1%
