project_2_1/simulation/qsim/cronometro.msim.vcd
$comment
	File created using the following command:
		vcd file cronometro.msim.vcd -direction
$end
$date
	Tue Jun 22 11:30:25 2021
$end
$version
	ModelSim Version 10.5b
$end
$timescale
	1ps
$end

$scope module PCounter4_vlg_vec_tst $end
$var reg 1 ! clk $end
$var reg 1 " enable $end
$var reg 1 # mainEn $end
$var reg 1 $ mode $end
$var reg 1 % reset $end
$var wire 1 & Q [3] $end
$var wire 1 ' Q [2] $end
$var wire 1 ( Q [1] $end
$var wire 1 ) Q [0] $end
$var wire 1 * TC $end

$scope module i1 $end
$var wire 1 + gnd $end
$var wire 1 , vcc $end
$var wire 1 - unknown $end
$var tri1 1 . devclrn $end
$var tri1 1 / devpor $end
$var tri1 1 0 devoe $end
$var wire 1 1 TC~output_o $end
$var wire 1 2 Q[0]~output_o $end
$var wire 1 3 Q[1]~output_o $end
$var wire 1 4 Q[2]~output_o $end
$var wire 1 5 Q[3]~output_o $end
$var wire 1 6 clk~input_o $end
$var wire 1 7 reset~input_o $end
$var wire 1 8 mode~input_o $end
$var wire 1 9 s_count~0_combout $end
$var wire 1 : enable~input_o $end
$var wire 1 ; mainEn~input_o $end
$var wire 1 < s_count[0]~1_combout $end
$var wire 1 = Add0~1_cout $end
$var wire 1 > Add0~2_combout $end
$var wire 1 ? Add0~3 $end
$var wire 1 @ Add0~4_combout $end
$var wire 1 A s_count~4_combout $end
$var wire 1 B Add0~5 $end
$var wire 1 C Add0~6_combout $end
$var wire 1 D s_count~5_combout $end
$var wire 1 E TC~0_combout $end
$var wire 1 F s_count~2_combout $end
$var wire 1 G s_count~3_combout $end
$var wire 1 H TC~1_combout $end
$var wire 1 I TC~2_combout $end
$var wire 1 J TC~reg0_q $end
$var wire 1 K s_count [3] $end
$var wire 1 L s_count [2] $end
$var wire 1 M s_count [1] $end
$var wire 1 N s_count [0] $end
$upscope $end
$upscope $end
$enddefinitions $end
#0
$dumpvars
0!
1"
1#
0$
0%
0)
0(
0'
0&
0*
0+
1,
x-
1.
1/
10
01
02
03
04
05
06
07
08
19
1:
1;
1<
0=
0>
1?
0@
0A
0B
0C
0D
0E
1F
0G
1H
0I
0J
0N
0M
0L
0K
$end
#15000
1!
16
1N
12
1=
1)
09
1>
1G
#30000
0!
06
#45000
1!
16
1M
0N
02
13
0?
0>
0=
1(
0)
19
1@
1?
1>
0G
0@
1A
1G
0A
#60000
0!
06
#75000
1!
16
1N
12
1=
1)
09
0?
0>
1@
0G
1A
#90000
0!
06
#105000
1!
16
0M
1L
0N
02
14
03
1?
1>
1B
0@
0=
0(
1'
0)
19
0B
1@
1C
0>
1G
0A
0C
1A
1D
0G
0D
#120000
0!
06
#135000
1!
16
1N
12
1=
1)
09
1>
1G
#150000
0!
06
#165000
1!
16
1M
0N
02
13
0?
0>
0=
1(
0)
19
1B
0@
1?
1>
0G
1C
0B
1@
0A
1G
0C
1D
1A
0D
#180000
0!
06
#195000
1!
16
1N
12
1=
1)
09
0?
0>
1B
0@
0G
1C
0A
1D
#210000
0!
06
#225000
1!
16
0M
1K
0L
0N
02
04
15
03
1?
1>
0C
0B
1@
0=
0(
1&
0'
0)
19
0@
1C
0>
1G
0D
1A
0A
1D
0G
#240000
0!
06
#255000
1!
16
1N
12
1E
1=
1)
09
0H
0F
1>
1I
0D
#270000
0!
06
#285000
1!
16
1J
0K
0N
02
05
11
0E
0C
0=
1*
0&
0)
19
1H
1F
0>
0I
#300000
0!
06
#315000
1!
16
0J
1N
12
01
1=
0*
1)
09
1>
1G
#330000
0!
06
#345000
1!
16
1M
0N
02
13
0?
0>
0=
1(
0)
19
1@
1?
1>
0G
0@
1A
1G
0A
#350000
0"
0:
0<
#360000
0!
06
#375000
1!
16
#390000
0!
06
#400000
1"
1:
1<
#405000
1!
16
1N
12
1=
1)
09
0?
0>
1@
0G
1A
#410000
1$
18
1C
1B
0@
1>
0C
1D
0A
1G
0D
#420000
0!
06
#435000
1!
16
0N
02
1E
0=
0)
19
0>
0G
#450000
0!
06
#465000
1!
16
0M
1N
12
03
0H
0F
1?
1>
0E
1=
0(
1)
09
0B
1@
1H
1F
0?
0>
1I
1D
1C
1B
0@
1A
0I
0D
0C
1D
0A
0D
#480000
0!
06
#495000
1!
16
0N
02
1E
0=
0)
19
0H
0F
1?
1>
0B
1@
1I
1D
1C
#510000
0!
06
#525000
1!
16
1J
1K
1N
12
15
11
0E
0C
1=
1*
1&
1)
09
1H
1F
0?
0>
1B
0@
0I
0D
1A
1C
0A
1D
#540000
0!
06
#555000
1!
16
0J
0N
02
01
0=
0*
0)
19
1?
1>
0B
1@
1G
0C
1A
0D
#570000
0!
06
#585000
1!
16
1M
0K
1L
1N
12
14
05
13
0?
0>
1C
1B
0@
1=
1(
0&
1'
1)
09
1@
0C
1>
0G
1D
0A
1A
0D
1G
#600000
0!
06
#615000
1!
16
0N
02
1E
0=
0)
19
0>
0G
#630000
0!
06
#645000
1!
16
0M
1N
12
03
1?
1>
0E
1=
0(
1)
09
0@
0?
0>
1G
1@
0A
0G
1A
#660000
0!
06
#675000
1!
16
0N
02
1E
0=
0)
19
1?
1>
0@
1G
0A
#690000
0!
06
#705000
1!
16
1M
0L
1N
12
04
13
0?
0>
0B
1@
0E
1=
1(
0'
1)
09
1B
0@
1C
1>
0G
1A
0C
0A
1D
1G
0D
#720000
0!
06
#735000
1!
16
0N
02
1E
0=
0)
19
0>
0G
#750000
0!
06
#765000
1!
16
0M
1N
12
03
0H
0F
1?
1>
0E
1=
0(
1)
09
0B
1@
1H
1F
0?
0>
1I
1D
1C
1B
0@
1A
0I
0D
0C
1D
0A
0D
#780000
0$
0!
08
06
1C
0B
1@
1?
1>
0C
0@
1D
1A
1G
0D
0A
#790000
1%
17
0F
0G
#795000
1!
16
0N
02
0=
0)
0>
#810000
0!
06
#820000
0%
07
1F
19
#825000
1!
16
1N
12
1=
1)
09
1>
1G
#840000
0!
06
#855000
1!
16
1M
0N
02
13
0?
0>
0=
1(
0)
19
1@
1?
1>
0G
0@
1A
1G
0A
#870000
0!
06
#885000
1!
16
1N
12
1=
1)
09
0?
0>
1@
0G
1A
#900000
1%
0!
17
06
0F
0A
#915000
1!
16
0M
0N
02
03
1?
1>
0=
0(
0)
0@
0>
#930000
0!
06
#940000
0%
07
1F
19
#945000
1!
16
1N
12
1=
1)
09
1>
1G
#960000
0#
0!
0;
06
0<
#975000
1!
16
#990000
0!
06
